{
  "name": "Cat blocks",
  "description": "Brings back editor cat hat blocks from April Fools 2020.",
  "credits": [
    {
      "name": "TheColaber",
      "link": "https://scratch.mit.edu/users/TheColaber"
    },
    {
      "name": "GarboMuffin"
    }
  ],
  "userscripts": [
    {
      "url": "userscript.js"
    }
  ],
  "onlyInEditor": true,
  "info": [
    {
      "type": "warning",
      "text": "The \"Watch mouse cursor\" option may impact performance when the editor is open.",
      "id": "watch"
    }
  ],
  "settings": [
    {
      "id": "watch",
      "name": "Watch mouse cursor",
      "default": false,
      "type": "boolean"
    }
  ],
  "tags": [
    "editor",
    "codeEditor",
    "theme",
    "featured"
  ],
  "enabledByDefault": false
}