{
  "name": "Sprite deletion confirmation",
  "description": "Asks if you're sure when deleting a sprite inside a project.",
  "userscripts": [
    {
      "url": "userscript.js"
    }
  ],
  "onlyInEditor": true,
  "dynamicEnable": true,
  "dynamicDisable": true,
  "tags": [
    "editor",
    "recommended"
  ],
  "enabledByDefault": false
}